id,sentiment
0,positive
1,positive
2,neutral
3,positive
4,positive
5,negative
6,positive
7,positive
8,neutral
9,positive
10,positive
11,positive
12,neutral
13,neutral
14,neutral
15,negative
16,negative
17,neutral
18,positive
19,negative
20,positive
21,negative
22,negative
23,positive
24,positive
25,negative
26,positive
27,positive
28,negative
29,positive
30,positive
31,positive
32,negative
33,negative
34,positive
35,positive
36,positive
37,positive
38,positive
39,neutral
40,positive
41,positive
42,neutral
43,positive
44,neutral
45,positive
46,neutral
47,neutral
48,positive
49,negative
50,neutral
51,neutral
52,positive
53,neutral
54,positive
55,neutral
56,positive
57,neutral
58,neutral
59,neutral
60,positive
61,neutral
62,positive
63,positive
64,positive
65,positive
66,negative
67,neutral
68,positive
69,negative
70,positive
71,positive
72,positive
73,neutral
74,neutral
75,positive
76,neutral
77,positive
78,positive
79,positive
80,neutral
81,positive
82,positive
83,positive
84,positive
85,positive
86,neutral
87,positive
88,positive
89,neutral
90,positive
91,neutral
92,positive
93,positive
94,positive
95,positive
96,neutral
97,positive
98,positive
99,neutral
100,positive
101,negative
102,neutral
103,positive
104,neutral
105,negative
106,neutral
107,neutral
108,negative
109,neutral
110,positive
111,neutral
112,positive
113,neutral
114,positive
115,positive
116,positive
117,positive
118,positive
119,positive
120,positive
121,positive
122,neutral
123,neutral
124,positive
125,positive
126,negative
127,negative
128,neutral
129,positive
130,positive
131,neutral
132,positive
133,negative
134,positive
135,positive
136,positive
137,neutral
138,neutral
139,negative
140,positive
141,neutral
142,positive
143,neutral
144,positive
145,positive
146,positive
147,positive
148,positive
149,positive
150,negative
151,positive
152,negative
153,neutral
154,positive
155,neutral
156,positive
157,positive
158,positive
159,positive
160,neutral
161,negative
162,positive
163,positive
164,neutral
165,neutral
166,positive
167,neutral
168,negative
169,negative
170,negative
171,negative
172,negative
173,positive
174,negative
175,neutral
176,positive
177,positive
178,neutral
179,neutral
180,negative
181,positive
182,neutral
183,positive
184,positive
185,negative
186,positive
187,positive
188,neutral
189,neutral
190,positive
191,positive
192,neutral
193,negative
194,positive
195,neutral
196,positive
197,neutral
198,positive
199,positive
200,positive
201,positive
202,positive
203,positive
204,positive
205,negative
206,positive
207,positive
208,neutral
209,positive
210,neutral
211,neutral
212,positive
213,neutral
214,negative
215,neutral
216,negative
217,negative
218,positive
219,positive
220,positive
221,positive
222,positive
223,positive
224,positive
225,neutral
226,positive
227,positive
228,positive
229,positive
230,positive
231,neutral
232,positive
233,positive
234,negative
235,neutral
236,positive
237,neutral
238,neutral
239,negative
240,neutral
241,positive
242,neutral
243,negative
244,positive
245,positive
246,positive
247,neutral
248,positive
249,positive
250,neutral
251,neutral
252,positive
253,neutral
254,positive
255,positive
256,positive
257,negative
258,positive
259,positive
260,positive
261,positive
262,negative
263,positive
264,neutral
265,neutral
266,positive
267,positive
268,positive
269,negative
270,positive
271,neutral
272,neutral
273,positive
274,positive
275,positive
276,neutral
277,neutral
278,positive
279,positive
280,negative
281,negative
282,negative
283,positive
284,positive
285,neutral
286,positive
287,neutral
288,negative
289,positive
290,positive
291,positive
292,neutral
293,positive
294,positive
295,positive
296,positive
297,positive
298,neutral
299,positive
300,positive
301,positive
302,positive
303,positive
304,positive
305,positive
306,positive
307,positive
308,positive
309,neutral
310,positive
311,positive
312,positive
313,negative
314,neutral
315,positive
316,neutral
317,negative
318,positive
319,neutral
320,neutral
321,positive
322,positive
323,neutral
324,neutral
325,negative
326,positive
327,positive
328,positive
329,neutral
330,positive
331,neutral
332,positive
333,negative
334,negative
335,positive
336,neutral
337,positive
338,positive
339,positive
340,positive
341,neutral
342,positive
343,positive
344,positive
345,neutral
346,neutral
347,neutral
348,neutral
349,negative
350,neutral
351,positive
352,negative
353,neutral
354,negative
355,neutral
356,positive
357,positive
358,neutral
359,neutral
360,positive
361,positive
362,neutral
363,neutral
364,positive
365,positive
366,positive
367,neutral
368,positive
369,positive
370,negative
371,positive
372,positive
373,neutral
374,positive
375,positive
376,negative
377,positive
378,neutral
379,neutral
380,positive
381,neutral
382,positive
383,neutral
384,neutral
385,positive
386,positive
387,neutral
388,positive
389,positive
390,neutral
391,positive
392,negative
393,positive
394,positive
395,negative
396,positive
397,positive
398,neutral
399,neutral
400,neutral
401,neutral
402,positive
403,neutral
404,negative
405,negative
406,positive
407,neutral
408,positive
409,positive
410,positive
411,positive
412,positive
413,positive
414,positive
415,neutral
416,neutral
417,positive
418,negative
419,positive
420,negative
421,positive
422,positive
423,positive
424,positive
425,positive
426,positive
427,negative
428,neutral
429,positive
430,positive
431,positive
432,positive
433,neutral
434,neutral
435,positive
436,negative
437,positive
438,neutral
439,neutral
440,neutral
441,neutral
442,neutral
443,positive
444,neutral
445,positive
446,negative
447,neutral
448,negative
449,neutral
450,neutral
451,neutral
452,positive
453,neutral
454,negative
455,positive
456,negative
457,negative
458,neutral
459,neutral
460,positive
461,negative
462,negative
463,positive
464,positive
465,negative
466,neutral
467,neutral
468,positive
469,positive
470,positive
471,negative
472,positive
473,positive
474,positive
475,positive
476,positive
477,neutral
478,positive
479,positive
480,positive
481,positive
482,neutral
483,neutral
484,positive
485,positive
486,positive
487,negative
488,positive
489,positive
490,negative
491,neutral
492,positive
493,neutral
494,positive
495,neutral
496,positive
497,neutral
498,positive
499,positive
500,negative
501,positive
502,positive
503,negative
504,positive
505,positive
506,positive
507,negative
508,positive
509,neutral
510,negative
511,negative
512,positive
513,neutral
514,neutral
515,negative
516,neutral
517,neutral
518,positive
519,positive
520,neutral
521,positive
522,positive
523,neutral
524,positive
525,neutral
526,positive
527,positive
528,positive
529,positive
530,positive
531,negative
532,negative
533,positive
534,positive
535,neutral
536,positive
537,positive
538,negative
539,positive
540,positive
541,positive
542,positive
543,positive
544,positive
545,negative
546,positive
547,negative
548,positive
549,positive
550,neutral
551,positive
552,positive
554,positive
555,neutral
556,positive
557,neutral
558,positive
559,positive
560,negative
561,positive
562,positive
563,negative
564,negative
565,positive
566,negative
567,negative
568,positive
569,positive
570,neutral
571,positive
572,positive
573,positive
574,neutral
575,positive
576,positive
577,neutral
578,positive
579,neutral
580,positive
581,positive
582,positive
583,positive
584,neutral
585,neutral
586,negative
587,positive
588,positive
589,positive
590,negative
591,positive
592,negative
593,positive
594,negative
595,neutral
596,positive
597,positive
598,negative
599,positive
600,negative
601,positive
602,neutral
603,negative
604,positive
605,neutral
606,negative
607,neutral
608,positive
609,positive
610,neutral
611,positive
612,positive
613,positive
614,positive
615,negative
616,neutral
617,positive
618,positive
619,positive
620,positive
621,neutral
622,positive
623,negative
624,neutral
625,positive
626,positive
627,negative
628,neutral
629,positive
630,positive
631,negative
632,positive
633,neutral
634,positive
635,positive
636,positive
637,neutral
638,negative
639,positive
640,neutral
641,neutral
642,positive
643,neutral
644,neutral
645,positive
646,neutral
647,positive
648,neutral
649,positive
650,positive
651,neutral
652,positive
653,positive
654,positive
655,neutral
656,positive
657,positive
658,positive
659,neutral
660,positive
661,positive
662,positive
663,neutral
664,positive
665,positive
666,neutral
667,positive
668,neutral
669,positive
670,neutral
671,negative
672,negative
673,positive
674,neutral
675,positive
676,neutral
677,positive
678,negative
679,positive
680,negative
681,positive
682,positive
683,positive
684,positive
685,neutral
686,neutral
687,neutral
688,neutral
689,positive
690,positive
691,neutral
692,neutral
693,positive
694,neutral
695,negative
696,positive
697,positive
698,neutral
699,neutral
700,negative
701,negative
702,positive
703,positive
704,positive
705,negative
706,positive
707,negative
708,positive
709,positive
710,neutral
711,negative
712,neutral
713,positive
714,neutral
715,positive
716,positive
717,positive
718,positive
719,neutral
720,positive
721,neutral
722,positive
723,neutral
724,positive
725,positive
726,positive
727,neutral
728,positive
729,positive
730,positive
731,positive
732,negative
733,positive
734,negative
735,negative
736,positive
737,neutral
738,negative
739,positive
740,positive
741,negative
742,positive
743,neutral
744,negative
745,negative
746,neutral
747,neutral
748,positive
749,negative
750,positive
751,positive
752,positive
753,negative
754,neutral
755,positive
756,neutral
757,neutral
758,negative
759,neutral
760,positive
761,positive
762,negative
763,neutral
764,positive
765,positive
766,negative
767,positive
768,positive
769,positive
770,positive
771,positive
772,neutral
773,neutral
774,positive
775,neutral
776,neutral
777,positive
778,neutral
779,positive
780,neutral
781,positive
782,positive
783,neutral
784,neutral
785,positive
786,positive
787,neutral
788,positive
789,positive
790,negative
791,positive
792,positive
793,positive
794,positive
795,positive
796,negative
797,negative
798,negative
799,positive
800,positive
801,negative
802,positive
803,neutral
804,positive
805,positive
806,positive
807,negative
808,positive
809,neutral
810,negative
811,positive
812,positive
813,negative
814,positive
815,neutral
816,positive
817,positive
818,negative
819,positive
820,positive
821,neutral
822,neutral
823,neutral
824,neutral
825,neutral
826,positive
827,neutral
828,positive
829,positive
830,neutral
831,neutral
832,neutral
833,negative
834,neutral
835,positive
836,positive
837,positive
838,neutral
839,positive
840,positive
841,positive
842,positive
843,positive
844,negative
845,positive
846,positive
847,positive
848,neutral
849,positive
850,positive
851,negative
852,positive
853,neutral
854,positive
855,positive
856,negative
857,positive
858,positive
859,positive
860,neutral
861,neutral
862,positive
863,neutral
864,negative
865,positive
866,positive
867,neutral
868,neutral
869,positive
870,positive
871,neutral
872,positive
873,positive
874,positive
875,positive
876,neutral
877,positive
878,positive
879,neutral
880,positive
881,negative
882,neutral
883,neutral
884,positive
885,neutral
886,negative
887,positive
888,negative
889,negative
890,positive
891,positive
892,neutral
893,positive
894,positive
895,negative
896,positive
897,positive
898,neutral
899,positive
900,positive
901,neutral
902,positive
903,positive
904,negative
905,positive
906,positive
907,positive
908,positive
909,neutral
910,neutral
911,neutral
912,neutral
913,positive
914,positive
915,negative
916,positive
917,negative
918,positive
919,neutral
920,positive
921,neutral
922,positive
923,neutral
924,positive
925,positive
926,negative
927,neutral
928,positive
929,negative
930,positive
931,negative
932,positive
933,positive
934,positive
935,positive
936,neutral
937,negative
938,positive
939,negative
940,positive
941,negative
942,neutral
943,neutral
944,neutral
945,neutral
946,positive
947,neutral
948,negative
949,negative
950,positive
951,negative
952,negative
953,positive
954,negative
955,positive
956,positive
957,positive
958,neutral
959,positive
960,positive
961,positive
962,negative
963,positive
964,neutral
965,positive
966,positive
967,positive
968,positive
969,positive
970,positive
971,negative
972,positive
973,positive
974,neutral
975,negative
976,negative
977,neutral
978,positive
979,positive
980,negative
981,neutral
982,neutral
983,neutral
984,negative
985,positive
986,negative
987,neutral
988,negative
989,positive
990,negative
991,neutral
992,positive
993,positive
994,neutral
995,positive
996,positive
997,positive
998,neutral
999,positive
1000,neutral
1001,positive
1002,positive
1003,positive
1004,neutral
1005,positive
1006,positive
1007,negative
1008,positive
1009,positive
1010,negative
1011,neutral
1012,neutral
1013,negative
1014,neutral
1015,negative
1016,positive
1017,positive
1018,positive
1019,positive
1020,negative
1021,neutral
1022,positive
1023,positive
1024,neutral
1025,neutral
1026,negative
1027,positive
1028,negative
1029,positive
1030,neutral
1031,neutral
1032,positive
1033,neutral
1034,positive
1035,neutral
1036,neutral
1037,neutral
1038,positive
1039,positive
1040,positive
1041,positive
1042,positive
1043,negative
1044,neutral
1045,positive
1046,neutral
1047,positive
1048,positive
1049,neutral
1050,positive
1051,positive
1052,negative
1053,positive
1054,positive
1055,negative
1056,positive
1057,negative
1058,neutral
1059,positive
1060,negative
1061,neutral
1062,neutral
1063,positive
1064,positive
1065,positive
1066,neutral
1067,negative
1068,neutral
1069,negative
1070,neutral
1071,negative
1072,positive
1073,positive
1074,neutral
1075,negative
1076,positive
1077,positive
1078,positive
1079,positive
1080,negative
1081,positive
1082,neutral
1083,positive
1084,positive
1085,positive
1086,positive
1087,negative
1088,positive
1089,neutral
1090,positive
1091,positive
1092,positive
1093,positive
1094,neutral
1095,positive
1096,positive
1097,negative
1098,negative
1099,negative
1100,neutral
1101,positive
1102,neutral
1103,negative
1104,negative
1105,negative
1106,negative
1107,negative
1108,positive
1109,negative
1110,neutral
1111,positive
1112,positive
1113,positive
1114,positive
1115,neutral
1116,positive
1117,neutral
1118,positive
1119,positive
1120,negative
1121,negative
1122,positive
1123,negative
1124,negative
1125,positive
1126,neutral
1127,positive
1128,positive
1129,neutral
1130,positive
1131,neutral
1132,neutral
1133,positive
1134,positive
1135,positive
1136,negative
1137,positive
1138,positive
1139,positive
1140,neutral
1141,positive
1142,negative
1143,neutral
1144,negative
1145,positive
1146,negative
1147,positive
1148,positive
1149,positive
1150,positive
1151,positive
1152,positive
1153,positive
1154,positive
1155,negative
1156,positive
1157,positive
1158,neutral
1159,negative
1160,positive
1161,negative
1162,positive
1163,positive
1164,negative
1165,neutral
1166,neutral
1167,positive
1168,negative
1169,positive
1170,positive
1171,negative
1172,positive
1173,neutral
1174,negative
1175,positive
1176,positive
1177,neutral
1178,positive
1179,positive
1180,neutral
1181,positive
1182,positive
1183,positive
1184,neutral
1185,positive
1186,negative
1187,neutral
1188,positive
1189,positive
1190,neutral
1191,neutral
1192,positive
1193,neutral
1194,positive
1195,negative
1196,positive
1197,negative
1198,positive
1199,neutral
1200,positive
1201,positive
1202,negative
1203,negative
1204,neutral
1205,positive
1206,negative
1207,positive
1208,positive
1209,positive
1210,negative
1211,neutral
1212,positive
1213,positive
1214,negative
1215,neutral
1216,positive
1217,neutral
1218,positive
1219,neutral
1220,neutral
1221,negative
1222,negative
1223,negative
1224,positive
1225,positive
1226,positive
1227,positive
1228,positive
1229,neutral
1230,positive
1231,neutral
1232,negative
1233,negative
1234,positive
1235,positive
1236,negative
1237,negative
1238,positive
1239,positive
1240,neutral
1241,positive
1242,positive
1243,neutral
1244,positive
1245,neutral
1246,positive
1247,neutral
1248,positive
1249,positive
1250,positive
1251,positive
1252,positive
1253,positive
1254,negative
1255,positive
1256,negative
1257,negative
1258,neutral
1259,neutral
1260,neutral
1261,positive
1262,positive
1263,positive
1264,neutral
1265,positive
1266,negative
1267,positive
1268,neutral
1269,negative
1270,positive
1271,positive
1272,neutral
1273,positive
1274,neutral
1275,neutral
1276,positive
1277,negative
1278,neutral
1279,positive
1280,positive
1281,neutral
1282,neutral
1283,neutral
1284,neutral
1285,positive
1286,negative
1287,positive
1288,neutral
1289,positive
1290,positive
1291,positive
1292,negative
1293,neutral
1294,positive
1295,negative
1296,positive
1297,positive
1298,positive
1299,positive
1300,neutral
1301,positive
1302,positive
1303,negative
1304,positive
1305,positive
1306,positive
1307,positive
1308,neutral
1309,positive
1310,neutral
1311,positive
1312,negative
1313,positive
1314,positive
1315,negative
1316,positive
1317,positive
1318,neutral
1319,positive
1320,positive
1321,positive
1322,positive
1323,negative
1324,positive
1325,negative
1326,neutral
1327,positive
1328,neutral
1329,negative
1330,positive
1331,neutral
1332,neutral
1333,neutral
1334,negative
1335,positive
1336,neutral
1337,positive
1338,positive
1339,positive
1340,negative
1341,positive
1342,negative
1343,neutral
1344,neutral
1345,positive
1346,neutral
1347,positive
1348,negative
1349,negative
1350,positive
1351,positive
1352,positive
1353,positive
1354,positive
1355,neutral
1356,positive
1357,neutral
1358,neutral
1359,neutral
1360,neutral
1361,positive
1362,positive
1363,positive
1364,neutral
1365,positive
1366,positive
1367,neutral
1368,positive
1369,neutral
1370,negative
1371,positive
1372,positive
1373,positive
1374,positive
1375,positive
1376,positive
1377,positive
1378,positive
1379,neutral
1380,neutral
1381,positive
1382,neutral
1383,neutral
1384,negative
1385,negative
1386,positive
1387,positive
1388,negative
1389,neutral
1390,positive
1391,positive
1392,neutral
1393,neutral
1394,neutral
1395,negative
1396,negative
1397,positive
1398,positive
1399,positive
1400,positive
1401,neutral
1402,negative
1403,positive
1404,positive
1405,positive
1406,neutral
1407,positive
1408,positive
1409,neutral
1410,positive
1411,negative
1412,neutral
1413,positive
1414,positive
1415,positive
1416,neutral
1417,negative
1418,positive
1419,negative
1420,positive
1421,neutral
1422,positive
1423,positive
1424,positive
1425,positive
1426,neutral
1427,positive
1428,negative
1429,negative
1430,neutral
1431,positive
1432,negative
1433,positive
1434,positive
1435,positive
1436,positive
1437,negative
1438,positive
1439,neutral
1440,positive
1441,positive
1442,negative
1443,positive
1444,positive
1445,neutral
1446,positive
1447,positive
1448,neutral
1449,neutral
1450,positive
1451,positive
1452,neutral
1453,positive
1454,neutral
1455,positive
1456,positive
1457,neutral
1458,positive
1459,positive
1460,neutral
1461,negative
1462,positive
1463,neutral
1464,neutral
1465,positive
1466,positive
1467,positive
1468,positive
1469,positive
1470,positive
1471,positive
1472,positive
1473,positive
1474,positive
1475,neutral
1476,positive
1477,positive
1478,neutral
1479,positive
1480,positive
1481,positive
1482,neutral
1483,positive
1484,neutral
1485,neutral
1486,positive
1487,neutral
1488,negative
1489,positive
1490,positive
1491,negative
1492,negative
1493,positive
1494,neutral
1495,neutral
1496,positive
1497,negative
1498,positive
1499,neutral
1500,positive
1501,neutral
1502,negative
1503,neutral
1504,negative
1505,positive
1506,positive
1507,positive
1508,positive
1509,positive
1510,positive
1511,neutral
1512,positive
1513,positive
1514,neutral
1515,negative
1516,negative
1517,positive
1518,positive
1519,positive
1520,positive
1521,neutral
1522,positive
1523,positive
1524,positive
1525,negative
1526,positive
1527,neutral
1528,negative
1529,negative
1530,negative
1531,positive
1532,positive
1533,positive
1534,positive
1535,positive
1536,negative
1537,neutral
1538,positive
1539,neutral
1540,positive
1541,positive
1542,negative
1543,positive
1544,neutral
1545,positive
1546,neutral
1547,positive
1548,neutral
1549,positive
1550,neutral
1551,positive
1552,positive
1553,neutral
1554,positive
1555,positive
1556,neutral
1557,positive
1558,negative
1559,neutral
1560,neutral
1561,negative
1562,neutral
1563,neutral
1564,neutral
1565,negative
1566,neutral
1567,positive
1568,negative
1569,negative
1570,negative
1571,positive
1572,positive
1573,neutral
1574,negative
1575,neutral
1576,neutral
1577,positive
1578,neutral
1579,neutral
1580,positive
1581,positive
1582,negative
1583,neutral
1584,positive
1585,positive
1586,negative
1587,positive
1588,positive
1589,positive
1590,neutral
1591,positive
1592,positive
1593,neutral
1594,positive
1595,positive
1596,positive
1597,positive
1598,positive
1599,neutral
1600,negative
1601,negative
1602,neutral
1603,positive
1604,positive
1605,positive
1606,positive
1607,positive
1608,negative
1609,negative
1610,neutral
1611,neutral
1612,negative
1613,positive
1614,positive
1615,positive
1616,positive
1617,positive
1618,negative
1619,positive
1620,neutral
1621,positive
1622,positive
1623,positive
1624,positive
1625,positive
1626,positive
1627,positive
1628,negative
1629,neutral
1630,positive
1631,negative
1632,neutral
1633,positive
1634,neutral
1635,negative
1636,negative
1637,positive
1638,negative
1639,positive
1640,neutral
1641,neutral
1642,positive
1643,neutral
1644,neutral
1645,neutral
1646,positive
1647,positive
1648,neutral
1649,positive
1650,neutral
1651,positive
1652,negative
1653,positive
1654,neutral
1655,positive
1656,positive
1657,positive
1658,neutral
1659,positive
1660,positive
1661,neutral
1662,positive
1663,neutral
1664,positive
1665,positive
1666,positive
1667,positive
1668,neutral
1669,positive
1670,neutral
1671,positive
1672,positive
1673,positive
1674,positive
1675,positive
1676,negative
1677,neutral
1678,positive
1679,positive
1680,positive
1681,positive
1682,negative
1683,negative
1684,negative
1685,negative
1686,positive
1687,neutral
1688,negative
1689,positive
1690,negative
1691,negative
1692,neutral
1693,negative
1694,positive
1695,positive
1696,negative
1697,neutral
1698,positive
1699,positive
1700,positive
1701,neutral
1702,positive
1703,negative
1704,positive
1705,neutral
1706,positive
1707,positive
1708,neutral
1709,positive
1710,positive
1711,negative
1712,positive
1713,neutral
1714,positive
1715,neutral
1716,neutral
1717,neutral
1718,positive
1719,positive
1720,neutral
1721,positive
1722,positive
1723,negative
1724,positive
1725,neutral
1726,positive
1727,positive
1728,negative
1729,neutral
1730,positive
1731,positive
1732,neutral
1733,neutral
1734,positive
1735,positive
1736,positive
1737,negative
1738,negative
1739,positive
1740,positive
1741,neutral
1742,positive
1743,negative
1744,positive
1745,positive
1746,negative
1747,neutral
1748,positive
1749,neutral
1750,positive
1751,positive
1752,positive
1753,neutral
1754,positive
1755,positive
1756,positive
1757,positive
1758,neutral
1759,neutral
1760,neutral
1761,neutral
1762,neutral
1763,neutral
1764,positive
1765,negative
1766,positive
1767,positive
1768,neutral
1769,positive
1770,positive
1771,negative
1772,positive
1773,neutral
1774,negative
1775,neutral
1776,positive
1777,positive
1778,positive
1779,negative
1780,positive
1781,neutral
1782,positive
1783,positive
1784,positive
1785,neutral
1786,positive
1787,positive
1788,negative
1789,neutral
1790,neutral
1791,neutral
1792,positive
1793,neutral
1794,negative
1795,positive
1796,positive
1797,neutral
1798,negative
1799,negative
1800,neutral
1801,positive
1802,positive
1803,neutral
1804,positive
1805,neutral
1806,neutral
1807,neutral
1808,positive
1809,positive
1810,neutral
1811,positive
1812,positive
1813,negative
1814,neutral
1815,neutral
1816,neutral
1817,neutral
1818,negative
1819,positive
1820,neutral
1821,neutral
1822,positive
1823,negative
1824,neutral
1825,negative
1826,neutral
1827,positive
1828,positive
1829,positive
1830,positive
1831,positive
1832,positive
1833,positive
1834,positive
1835,positive
1836,neutral
1837,negative
1838,positive
1839,positive
1840,negative
1841,positive
1842,positive
1843,positive
1844,neutral
1845,neutral
1846,positive
1847,neutral
1848,negative
1849,negative
1850,positive
1851,negative
1852,neutral
1853,positive
1854,negative
1855,positive
1856,positive
1857,positive
1858,negative
1859,negative
1860,positive
1861,negative
1862,positive
1863,positive
1864,neutral
1865,positive
1866,positive
1867,negative
1868,positive
1869,positive
1870,positive
1871,positive
1872,neutral
1873,positive
1874,neutral
1875,neutral
1876,negative
1877,negative
1878,neutral
1879,neutral
1880,positive
1881,neutral
1882,positive
1883,positive
1884,positive
1885,positive
1886,negative
1887,positive
1888,negative
1889,positive
1890,positive
1891,positive
1892,positive
1893,neutral
1894,neutral
1895,positive
1896,neutral
1897,positive
1898,positive
1899,neutral
1900,positive
1901,positive
1902,neutral
1903,positive
1904,neutral
1905,positive
1906,positive
1907,positive
1908,neutral
1909,negative
1910,neutral
1911,positive
1912,positive
1913,neutral
1914,negative
1915,positive
1916,positive
1917,neutral
1918,negative
1919,neutral
1920,positive
1921,positive
1922,positive
1923,negative
1924,positive
1925,positive
1926,positive
1927,positive
1928,positive
1929,neutral
1930,positive
1931,neutral
1932,positive
1933,neutral
1934,positive
1935,positive
1936,negative
1937,neutral
1938,negative
1939,neutral
1940,positive
1941,positive
1942,positive
1943,positive
1944,positive
1945,negative
1946,positive
1947,neutral
1948,positive
1949,positive
1950,positive
1951,neutral
1952,positive
1953,neutral
1954,neutral
1955,positive
1956,positive
1958,positive
1959,positive
1960,positive
1961,neutral
1962,neutral
1963,positive
1964,negative
1965,positive
1966,neutral
1967,neutral
1968,neutral
1970,positive
1971,positive
1972,positive
1974,neutral
1976,positive
1977,positive
1978,positive
1979,positive
1981,neutral
1984,positive
1986,positive
1987,neutral
1989,positive
1990,negative
1991,positive
1992,neutral
1993,neutral
1994,positive
1995,positive
1996,neutral
1997,negative
1998,positive
1999,positive
2000,positive
2001,neutral
2002,neutral
2003,positive
2004,neutral
2005,neutral
2006,positive
2007,positive
2008,positive
2009,neutral
2010,positive
2011,positive
2013,neutral
2014,positive
2015,positive
2016,positive
2017,positive
2018,negative
2019,positive
2021,positive
2022,negative
2023,neutral
2024,positive
2025,neutral
2026,positive
2027,positive
2028,neutral
2029,neutral
2030,negative
2031,neutral
2033,positive
2034,neutral
2035,positive
2036,positive
2037,positive
2038,positive
2040,neutral
2041,negative
2042,neutral
2043,neutral
2044,negative
2045,positive
2047,positive
2048,positive
2049,positive
2052,negative
2057,positive
2058,neutral
2060,positive
2061,positive
2062,positive
2064,positive
2065,positive
2066,neutral
2067,neutral
2070,positive
2073,positive
2075,neutral
2076,neutral
2077,positive
2078,neutral
2079,negative
2083,neutral
2084,positive
2087,positive
2088,positive
